{
    "/js/app.js": "/js/app.js",
    "/js/gif-images.js": "/js/gif-images.js",
    "/js/articles.js": "/js/articles.js",
    "/css/app.css": "/css/app.css",
    "/css/articles.css": "/css/articles.css",
    "/css/gif-images.css": "/css/gif-images.css"
}
